<?xml version="1.0" encoding="iso-8859-1"?>
<!-- Generator: Adobe Illustrator 19.0.0, SVG Export Plug-In . SVG Version: 6.00 Build 0)  -->
<svg version="1.1" id="pin" xmlns="http://www.w3.org/2000/svg" xmlns:xlink="http://www.w3.org/1999/xlink" x="0px" y="0px"
	 viewBox="0 0 512 512" style="enable-background:new 0 0 512 512;" xml:space="preserve">
<g>
	<g>
		<path d="M370.411,230.955l-61.077-15.275V72.341l34.581-8.661c4.757-1.195,8.085-5.461,8.085-10.347V10.667
			C352,4.779,347.221,0,341.333,0H170.667C164.779,0,160,4.779,160,10.667v42.667c0,4.885,3.328,9.152,8.085,10.347l34.581,8.661
			v143.317l-61.077,15.296c-14.272,3.563-24.256,16.341-24.256,31.04V288c0,5.888,4.779,10.667,10.667,10.667h256
			c5.888,0,10.667-4.779,10.667-10.667v-26.005C394.667,247.275,384.683,234.517,370.411,230.955z M373.333,277.333H138.667v-15.339
			c0-4.907,3.328-9.152,8.085-10.347l69.163-17.301C220.672,233.152,224,228.885,224,224V64c0-4.885-3.328-9.152-8.085-10.347
			l-34.581-8.661V21.333h149.333v23.659l-34.581,8.661C291.328,54.848,288,59.115,288,64v160c0,4.885,3.328,9.152,8.085,10.347
			l69.163,17.301c4.757,1.195,8.085,5.44,8.085,10.347V277.333z"/>
	</g>
</g>
<g>
	<g>
		<path d="M256,277.333c-5.888,0-10.667,4.779-10.667,10.667v213.333c0,5.888,4.779,10.667,10.667,10.667
			c5.888,0,10.667-4.779,10.667-10.667V288C266.667,282.112,261.888,277.333,256,277.333z"/>
	</g>
</g>
<g>
</g>
<g>
</g>
<g>
</g>
<g>
</g>
<g>
</g>
<g>
</g>
<g>
</g>
<g>
</g>
<g>
</g>
<g>
</g>
<g>
</g>
<g>
</g>
<g>
</g>
<g>
</g>
<g>
</g>
</svg>
